[
    {
      "id": 1,
      "name": "16lb bag of Skittles",
      "price": 16.00,
      "taxExempt": true,
      "isImported": false
    },
    {
      "id": 2,
      "name": "Walkman",
      "price": 99.99,
      "taxExempt": false,
      "isImported": false
    },
    {
      "id": 3,
      "name": "1 Bag of Microwave Popcorn",
      "price": 0.99,
      "taxExempt": true,
      "isImported": false
    },
    {
      "id": 4,
      "name": "1 Bag of Imported Vanilla-Hazelnut Coffee",
      "price": 11.00,
      "taxExempt": true,
      "isImported": true
    },
    {
      "id": 5,
      "name": "1 Bag of Imported Vespa",
      "price": 15001.25,
      "taxExempt": false,
      "isImported": true
    },
    {
      "id": 6,
      "name": "1 Crate of imported Almond Snickers",
      "price": 75.99,
      "taxExempt": true,
      "isImported": true
    },
    {
      "id": 7,
      "name": "Discman",
      "price": 55.00,
      "taxExempt": false,
      "isImported": false
    },
    {
      "id": 8,
      "name": "1 Imported Bottle of Wine",
      "price": 10.00,
      "taxExempt": false,
      "isImported": true
    },
    {
      "id": 9,
      "name": "300lb Bag of Fair-Trade Coffee",
      "price": 997.99,
      "taxExempt": true,
      "isImported": false
    }
  ]